Introduction to filtro
…
# ames |> str() # uncomment to see the structure of the data

To apply the ANOVA F-test filter, we first create a score class object to define the scoring method, and then use the fit() method with the standard formula to compute the scores.

ames_aov_pval_res <-
  score_aov_pval |>
  fit(Sale_Price ~ ., data = ames)

The data frame of results can be accessed via object@results.

ames_aov_pval_res@results
#> # A tibble: 73 × 4
#>    name      score outcome    predictor   
#>    <chr>     <dbl> <chr>      <chr>       
#>  1 aov_pval 237.   Sale_Price MS_SubClass 
#>  2 aov_pval 130.   Sale_Price MS_Zoning   
#>  3 aov_pval  NA    Sale_Price Lot_Frontage
#>  4 aov_pval  NA    Sale_Price Lot_Area    
#>  5 aov_pval   5.75 Sale_Price Street      
#>  6 aov_pval  19.2  Sale_Price Alley       
#>  7 aov_pval  71.3  Sale_Price Lot_Shape   
#>  8 aov_pval  21.4  Sale_Price Land_Contour
#>  9 aov_pval   1.38 Sale_Price Utilities   
#> 10 aov_pval  12.0  Sale_Price Lot_Config  
#> # ℹ 63 more rows
…
Then, we fill the safe value specific to each method, and then remove the outcome column.

# Fill safe values
ames_scores_results <- class_score_list |>
  fill_safe_values() |>
  # Remove outcome
  dplyr::select(-outcome)
ames_scores_results
#> # A tibble: 73 × 5
#>    predictor     aov_pval cor_pearson     imp_rf infogain
#>    <chr>            <dbl>       <dbl>      <dbl>    <dbl>
#>  1 MS_SubClass  1.68e-237       1     0.000450    0.266  
#>  2 MS_Zoning    2.75e-130       1     0.000434    0.113  
#>  3 Lot_Frontage 1.11e- 16       0.165 0.000192    0.146  
#>  4 Lot_Area     1.11e- 16       0.255 0.000690    0.140  
#>  5 Street       1.77e-  6       1     0.00000300  0.00365
#>  6 Alley        6.06e- 20       1     0.0000111   0.0254 
#>  7 Lot_Shape    5.17e- 72       1     0.0000806   0.0675 
#>  8 Land_Contour 3.79e- 22       1     0.0000582   0.0212 
#>  9 Utilities    4.16e-  2       1     0           0.00165
#> 10 Lot_Config   1.04e- 12       1     0.0000112   0.0133 
#> # ℹ 63 more rows

Analogous to show_best_desirability(), the show_best_desirability_prop() function allows joint optimization of multiple metrics using desirability functions.

A desirability function maps values of a metric to a [0, 1] range where 1 is most desirable and 0 is unacceptable. When the verb maximize() is used, it means larger values are better. This is the case for Pearson correlation, forest importance, and information gain.

For examples:

# Optimize correlation alone
ames_scores_results |>
  show_best_desirability_prop(
    maximize(cor_pearson, low = 0, high = 1)
  ) |> 
  # Show predictor and desirability only
  dplyr::select(predictor, starts_with(".d_"))
#> # A tibble: 73 × 3
#>    predictor    .d_max_cor_pearson .d_overall
#>    <chr>                     <dbl>      <dbl>
#>  1 MS_SubClass                   1          1
#>  2 MS_Zoning                     1          1
#>  3 Street                        1          1
#>  4 Alley                         1          1
#>  5 Lot_Shape                     1          1
#>  6 Land_Contour                  1          1
#>  7 Utilities                     1          1
#>  8 Lot_Config                    1          1
#>  9 Land_Slope                    1          1
#> 10 Neighborhood                  1          1
#> # ℹ 63 more rows

# Optimize correlation and forest importance
ames_scores_results |>
  show_best_desirability_prop(
    maximize(cor_pearson, low = 0, high = 1),
    maximize(imp_rf)
  ) |> 
  dplyr::select(predictor, starts_with(".d_"))
#> # A tibble: 73 × 4
#>    predictor      .d_max_cor_pearson .d_max_imp_rf .d_overall
#>    <chr>                       <dbl>         <dbl>      <dbl>
#>  1 Gr_Liv_Area                 0.696         1          0.834
#>  2 Year_Built                  0.615         0.869      0.731
#>  3 Total_Bsmt_SF               0.626         0.554      0.588
#>  4 Garage_Cars                 0.675         0.453      0.553
#>  5 Garage_Type                 1             0.298      0.546
#>  6 First_Flr_SF                0.603         0.479      0.537
#>  7 Year_Remod_Add              0.586         0.452      0.515
#>  8 Garage_Area                 0.651         0.395      0.507
#>  9 Foundation                  1             0.184      0.428
#> 10 Full_Bath                   0.577         0.272      0.396
#> # ℹ 63 more rows

# Optimize correlation, forest importance and information gain
ames_scores_results |>
  show_best_desirability_prop(
    maximize(cor_pearson, low = 0, high = 1),
    maximize(imp_rf),
    maximize(infogain)
  ) |> 
  dplyr::select(predictor, starts_with(".d_"))
#> # A tibble: 73 × 5
#>    predictor      .d_max_cor_pearson .d_max_imp_rf .d_max_infogain .d_overall
#>    <chr>                       <dbl>         <dbl>           <dbl>      <dbl>
#>  1 Gr_Liv_Area                 0.696         1               0.832      0.833
#>  2 Year_Built                  0.615         0.869           0.709      0.724
#>  3 Total_Bsmt_SF               0.626         0.554           0.625      0.600
#>  4 Garage_Cars                 0.675         0.453           0.708      0.600
#>  5 Garage_Area                 0.651         0.395           0.684      0.560
#>  6 First_Flr_SF                0.603         0.479           0.551      0.542
#>  7 Year_Remod_Add              0.586         0.452           0.514      0.515
#>  8 Garage_Type                 1             0.298           0.453      0.513
#>  9 Neighborhood                1             0.119           1          0.491
#> 10 Foundation                  1             0.184           0.454      0.437
#> # ℹ 63 more rows
…
minimize() when smaller values are better.

target() when a specific value of the metric is important.

constrain() when a range of values is equally desirable.

For examples:

ames_scores_results |>
  show_best_desirability_prop(
    minimize(aov_pval, low = 0, high = 1)
  ) |> 
  dplyr::select(predictor, starts_with(".d_"))
#> # A tibble: 73 × 3
#>    predictor    .d_min_aov_pval .d_overall
#>    <chr>                  <dbl>      <dbl>
#>  1 MS_SubClass                1          1
#>  2 MS_Zoning                  1          1
#>  3 Alley                      1          1
#>  4 Lot_Shape                  1          1
#>  5 Land_Contour               1          1
#>  6 Neighborhood               1          1
#>  7 Condition_1                1          1
#>  8 Bldg_Type                  1          1
#>  9 House_Style                1          1
#> 10 Overall_Cond               1          1
#> # ℹ 63 more rows

ames_scores_results |>
  show_best_desirability_prop(
    target(cor_pearson, low = 0.2, target = 0.255, high = 0.9)
  ) |> 
  dplyr::select(predictor, starts_with(".d_"))
#> # A tibble: 73 × 3
#>    predictor      .d_target_cor_pearson .d_overall
#>    <chr>                          <dbl>      <dbl>
#>  1 Lot_Area                       1.00       1.00 
#>  2 Second_Flr_SF                  0.969      0.969
#>  3 Bsmt_Full_Bath                 0.969      0.969
#>  4 Latitude                       0.952      0.952
#>  5 Half_Bath                      0.921      0.921
#>  6 Open_Porch_SF                  0.899      0.899
#>  7 Wood_Deck_SF                   0.879      0.879
#>  8 Mas_Vnr_Area                   0.709      0.709
#>  9 Fireplaces                     0.637      0.637
#> 10 TotRms_AbvGrd                  0.632      0.632
#> # ℹ 63 more rows

ames_scores_results |>
  show_best_desirability_prop(
    constrain(cor_pearson, low = 0.2, high = 1)
  ) |> 
  dplyr::select(predictor, starts_with(".d_"))
#> # A tibble: 73 × 3
#>    predictor    .d_box_cor_pearson .d_overall
#>    <chr>                     <dbl>      <dbl>
#>  1 MS_SubClass                   1          1
#>  2 MS_Zoning                     1          1
#>  3 Lot_Area                      1          1
#>  4 Street                        1          1
#>  5 Alley                         1          1
#>  6 Lot_Shape                     1          1
#>  7 Land_Contour                  1          1
#>  8 Utilities                     1          1
#>  9 Lot_Config                    1          1
#> 10 Land_Slope                    1          1
#> # ℹ 63 more rows
…
