Scoring via random forests
…
First, we create a score class object to specify a {ranger} random forest, and then use the fit() method with the standard formula to compute the importance scores.

# Specify random forest and fit score
cells_imp_rf_res <- score_imp_rf |>
  fit(
    class ~ .,
    data = cells_subset, 
    seed = 42 
  )

The data frame of results can be accessed via object@results.

cells_imp_rf_res@results
#> # A tibble: 56 × 4
#>    name        score outcome predictor                   
#>    <chr>       <dbl> <chr>   <chr>                       
#>  1 imp_rf  0.000967  class   angle_ch_1                  
#>  2 imp_rf -0.0000620 class   area_ch_1                   
#>  3 imp_rf  0.00438   class   avg_inten_ch_1              
#>  4 imp_rf  0.00916   class   avg_inten_ch_2              
#>  5 imp_rf -0.000426  class   avg_inten_ch_3              
#>  6 imp_rf -0.000296  class   avg_inten_ch_4              
#>  7 imp_rf  0.00836   class   convex_hull_area_ratio_ch_1 
#>  8 imp_rf  0.00133   class   convex_hull_perim_ratio_ch_1
#>  9 imp_rf  0.000739  class   diff_inten_density_ch_1     
#> 10 imp_rf -0.00128   class   diff_inten_density_ch_3     
#> # ℹ 46 more rows
…
A scoring example — conditional random forest

For the {partykit} conditional random forest, we again create a score class object to specify the model, then use the fit() method to compute the importance scores.

The data frame of results can be accessed via object@results.

# Set seed for reproducibility
set.seed(42)

# Specify conditional random forest and fit score
cells_imp_rf_conditional_res <- score_imp_rf_conditional |>
  fit(class ~ ., data = cells_subset, trees = 100)
cells_imp_rf_conditional_res@results
#> # A tibble: 40 × 4
#>    name                  score outcome predictor                   
#>    <chr>                 <dbl> <chr>   <chr>                       
#>  1 imp_rf_conditional -0.0306  class   angle_ch_1                  
#>  2 imp_rf_conditional  0.178   class   area_ch_1                   
#>  3 imp_rf_conditional  0.158   class   avg_inten_ch_1              
#>  4 imp_rf_conditional  0.132   class   avg_inten_ch_2              
#>  5 imp_rf_conditional  0.0927  class   convex_hull_area_ratio_ch_1 
#>  6 imp_rf_conditional  0.963   class   convex_hull_perim_ratio_ch_1
#>  7 imp_rf_conditional -0.0842  class   diff_inten_density_ch_1     
#>  8 imp_rf_conditional  0.0688  class   diff_inten_density_ch_3     
#>  9 imp_rf_conditional  0.147   class   entropy_inten_ch_1          
#> 10 imp_rf_conditional  0.00105 class   entropy_inten_ch_3          
#> # ℹ 30 more rows
…
An scoring example — oblique random forest

For the {aorsf} oblique random forest, we again create a score class object to specify the model, then use the fit() method to compute the importance scores.

The data frame of results can be accessed via object@results.

# Set seed for reproducibility
set.seed(42)

# Specify oblique random forest and fit score
cells_imp_rf_oblique_res <- score_imp_rf_oblique |>
  fit(class ~ ., data = cells_subset, trees = 100, mtry = 2)
cells_imp_rf_oblique_res@results
#> # A tibble: 56 × 4
#>    name             score outcome predictor               
#>    <chr>            <dbl> <chr>   <chr>                   
#>  1 imp_rf_oblique 0.0165  class   fiber_width_ch_1        
#>  2 imp_rf_oblique 0.0121  class   inten_cooc_contrast_ch_3
#>  3 imp_rf_oblique 0.0109  class   inten_cooc_max_ch_3     
#>  4 imp_rf_oblique 0.00850 class   shape_p_2_a_ch_1        
#>  5 imp_rf_oblique 0.00777 class   entropy_inten_ch_1      
#>  6 imp_rf_oblique 0.00725 class   eq_ellipse_lwr_ch_1     
#>  7 imp_rf_oblique 0.00589 class   inten_cooc_asm_ch_3     
#>  8 imp_rf_oblique 0.00543 class   diff_inten_density_ch_1 
#>  9 imp_rf_oblique 0.00513 class   shape_lwr_ch_1          
#> 10 imp_rf_oblique 0.00506 class   fiber_length_ch_1       
#> # ℹ 46 more rows
…
